%YAML 1.1
%TAG !u! tag:unity3d.com,2011:
--- !u!1001 &9023361525116543042
PrefabInstance:
  m_ObjectHideFlags: 0
  serializedVersion: 2
  m_Modification:
    m_TransformParent: {fileID: 0}
    m_Modifications:
    - target: {fileID: 484752787, guid: 901ce21461714564e80ed29bc0d3a610, type: 3}
      propertyPath: m_Materials.Array.data[0]
      value: 
      objectReference: {fileID: 2100000, guid: ba7e6ac7269865e4ba0d3a7e54fabdc8, type: 2}
    - target: {fileID: 3980524196128625487, guid: 901ce21461714564e80ed29bc0d3a610, type: 3}
      propertyPath: m_Materials.Array.data[0]
      value: 
      objectReference: {fileID: 2100000, guid: ba7e6ac7269865e4ba0d3a7e54fabdc8, type: 2}
    - target: {fileID: 4481013221742695663, guid: 901ce21461714564e80ed29bc0d3a610, type: 3}
      propertyPath: m_Materials.Array.data[0]
      value: 
      objectReference: {fileID: 2100000, guid: ba7e6ac7269865e4ba0d3a7e54fabdc8, type: 2}
    - target: {fileID: 5505183182570530226, guid: 901ce21461714564e80ed29bc0d3a610, type: 3}
      propertyPath: m_RootOrder
      value: 0
      objectReference: {fileID: 0}
    - target: {fileID: 5505183182570530226, guid: 901ce21461714564e80ed29bc0d3a610, type: 3}
      propertyPath: m_LocalPosition.x
      value: 0
      objectReference: {fileID: 0}
    - target: {fileID: 5505183182570530226, guid: 901ce21461714564e80ed29bc0d3a610, type: 3}
      propertyPath: m_LocalPosition.y
      value: 0
      objectReference: {fileID: 0}
    - target: {fileID: 5505183182570530226, guid: 901ce21461714564e80ed29bc0d3a610, type: 3}
      propertyPath: m_LocalPosition.z
      value: -3
      objectReference: {fileID: 0}
    - target: {fileID: 5505183182570530226, guid: 901ce21461714564e80ed29bc0d3a610, type: 3}
      propertyPath: m_LocalRotation.w
      value: 1
      objectReference: {fileID: 0}
    - target: {fileID: 5505183182570530226, guid: 901ce21461714564e80ed29bc0d3a610, type: 3}
      propertyPath: m_LocalRotation.x
      value: -0
      objectReference: {fileID: 0}
    - target: {fileID: 5505183182570530226, guid: 901ce21461714564e80ed29bc0d3a610, type: 3}
      propertyPath: m_LocalRotation.y
      value: -0
      objectReference: {fileID: 0}
    - target: {fileID: 5505183182570530226, guid: 901ce21461714564e80ed29bc0d3a610, type: 3}
      propertyPath: m_LocalRotation.z
      value: -0
      objectReference: {fileID: 0}
    - target: {fileID: 5505183182570530226, guid: 901ce21461714564e80ed29bc0d3a610, type: 3}
      propertyPath: m_LocalEulerAnglesHint.x
      value: 0
      objectReference: {fileID: 0}
    - target: {fileID: 5505183182570530226, guid: 901ce21461714564e80ed29bc0d3a610, type: 3}
      propertyPath: m_LocalEulerAnglesHint.y
      value: 0
      objectReference: {fileID: 0}
    - target: {fileID: 5505183182570530226, guid: 901ce21461714564e80ed29bc0d3a610, type: 3}
      propertyPath: m_LocalEulerAnglesHint.z
      value: 0
      objectReference: {fileID: 0}
    - target: {fileID: 5505183182570530227, guid: 901ce21461714564e80ed29bc0d3a610, type: 3}
      propertyPath: m_Name
      value: Home_Yellow
      objectReference: {fileID: 0}
    - target: {fileID: 5505183182570530227, guid: 901ce21461714564e80ed29bc0d3a610, type: 3}
      propertyPath: m_IsActive
      value: 1
      objectReference: {fileID: 0}
    - target: {fileID: 5845907677173982259, guid: 901ce21461714564e80ed29bc0d3a610, type: 3}
      propertyPath: colorOfHome
      value: 2
      objectReference: {fileID: 0}
    m_RemovedComponents: []
  m_SourcePrefab: {fileID: 100100000, guid: 901ce21461714564e80ed29bc0d3a610, type: 3}
